!pragma layout smetana
@startuml SearchPage_Activity_Tehnical
start
#LightBlue:User opens the search page;
group Initialization
    :Resolve the URL locations by getting their IDs;
    :Resolve the URL by getting the estate category and estate transaction types;
    :Get the page title;
    :Get the primary filters data;
    :Get sort options;
    :Get estate displayed characteristics;
    switch (Is the lowest URL location parameter a neighborhood?)
    case (Yes)
        :The selected neighborhoods section is hidden;
    case (No)
        :The selected neighborhoods section is visible;
    endswitch
end group
group Do after page's loaded 
    :Get extra filter data;
    :Get the estate dialog questions;
    :Get all the city neighborhoods;
    :Get the ads spaces;
end group
repeat
note
    First time the search is done in the initialization step
end note
group New search
:Get the estates by user's selected filters;
:Get the estates' agents;
:For each agent show the type of the agent;
:Change the URL of the page;
while (For each estate)
    :Calculate the locations to show;
    :Calculate the primary characteristics values;
    if (Has estate VR Tour?) then (Yes)
        :Show the VR Tour icon;
    endif
    if (Has estate TVA?) then (Yes)
        :Show "+TVA" alongside the price;
    endif
endwhile
:Calculate the number of pages;
end group
fork
    #LightBlue:User change one filter option;
    :Update the search data with the new changes;
fork again
    #LightBlue:User clicks on the delete icon of one tag with neighborhood from the list of selected neighborhoods;
    :Delete the location from the search data;
    :The tag is deleted from the list/section of selected neighborhoods;
    if (There are no more selected neighborhoods?) then (Yes)
        :Hide the list/section of selected neighborhoods;
    endif
fork again
    #LightBlue:User clicks on the locations' input;
    :The dialog with all the neighborhoods of the selected city are shown;
    #LightBlue:if (Is the user writing in the input?) then (Yes)
        :Show only the neighborhoods that match/starts with the user's input;
    endif
    #LightBlue:if (Did the user clicked on an neighborhood button?) then (Yes)
        :Add the neighborhood to the list/section of selected neighborhoods;
        if (Is the section/list of selected neighborhoods hidden?) then (Yes)
            :Show the section;
        endif
        :Close the dialog;
    endif
fork again
    #LightBlue:User clicks on the next/previous page, or a specific page number;
    :The starting index of the estates to get is recalculated;
endfork
repeat while (User did one action from above?) is (Yes)
fork
    #LightBlue:User change the display from/to grid/list of the estates;
fork again
    #LightBlue:User click on estate's link to view more;
    :User is redirected to the estate's page;
fork again
    #LightBlue:User clicks on the estate's button for asking more info;
    :The dialog with the options open;
    fork
        #LightBlue:User clicks outside the dialog;
        :The dialog closes;
        kill
    fork again
        #LightBlue:User click on an option;
    endfork
fork again
    #LightBlue:User clicks on the button for more filter options;
    :Show the list of extra filter options;
    :Change the button to indicate that can close the list of extra options from the same button;
endfork
stop
@enduml